"id","en","ar","bg","de","el","es","fi","fr","he","hi","hu","it","ja","ko","la","nl","pl","pt","pt_br","ru","sv","th","tr","uk","zh"
"total",79,7,79,8,7,78,77,78,7,7,57,79,7,7,7,7,7,7,78,62,24,7,7,78,78
"chess","Chess","كِش مَلِك","Шахмат","Schach","Σκάκι","Ajedrez","Shakki","Échecs","שחמט","शतरंज","Sakk","Scacchi","チェス","체스","Scacci","Schaken","Szachy","Xadrez","Xadrez","Шахматы","Shack","หมากรุก","Satranç","Шахи","国际象棋"
,,,,,,,,,,,,,,,,,,,,,,,,,
"piece.pawn","Pawn","عسكري","Пешка","Bauer","πιόνι","Peón","Sotilas","Pion","רגלי","प्यादा","Gyalog","Pedone","ポーン","폰","Pedes","Pion","Pion","Peão","Peão","Пешка","Bonde","เบี้ย","Er","Пішак","兵"
"piece.knight","Knight","حصان","Кон","Springer","ίππος","Caballo","Ratsu","Cavalier","פרש","घोड़ा","Huszár","Cavallo","ナイト","나이트","Eques","Paard","Skoczek","Cavalo","Cavalo","Конь","Springare","ม้า","At","Кінь","马"
"piece.bishop","Bishop","فيل","Офицер","Läufer","αξιωματικός","Alfil","Lähetti","Fou","רץ","ऊँट","Futó","Alfiere","ビショップ","비숍","Episcopus","Loper","Goniec","Bispo","Bispo","Слон","Löpare","โคน","Fil","Слон","象"
"piece.rook","Rook","طابية","Топ","Turm","πύργος","Torre","Torni","Tour","צריח","हाथी","Bástya","Torre","ルーク","룩","Turris","Toren","Wieża","Torre","Torre","Ладья","Torn","เรือ","Kale","Тура","车"
"piece.queen","Queen","وزير","Дама","Dame","βασίλισσα","Reina","Kuningatar","Reine","מלכה","वज़ीर","Vezér","Regina","クイーン","퀸","Regina","Dame","Hetman","Rainha","Rainha","Ферзь","Drottning","เม็ด","Vezir","Ферзь","后"
"piece.king","King","مَلِك","Цар","König","βασιλιάς","Rey","Kuningas","Roi","מלך","राजा","Király","Re","キング","킹","Rex","Koning","Król","Rei","Rei","Король","Kung","ขุน","Şah","Король","王"
,,,,,,,,,,,,,,,,,,,,,,,,,
"check","Check",,"Шах",,,,,,,,,"Scacco",,,,,,,,"Шах",,,,,
"checkmate","Checkmate",,"Мат",,,"Jaque-mate","Shakkimatti","Échec et mat",,,"Matt","Scacco matto",,,,,,,"Cheque mate","Мат",,,,"Мат","将军"
"stalemate","Stalemate",,"Пат",,,"Punto muerto","Kyllästyminen","Pat",,,"Patt","Patta",,,,,,,"Empasse",,,,,"Пат","和棋"
"opening","Opening",,"Дебют","Eröffnung",,"Brecha","Avaus","Ouverture",,,"Nyitány","Apertura",,,,,,,"Abertura","Дебют",,,,"Відкриття","开局"
"castle","Castle",,"Рокада",,,"Castillo","Tornitus","Roque",,,,"Arrocco",,,,,,,"Rocar","Рокировка",,,,"Рокіровка","王车易位"
"enpassant","En passant",,"Ан пасан",,,"En passant",,"En passant",,,,"En passant",,,,,,,"En passant","Взятие на проходе",,,,"Взяття на проході","吃过路兵"
"invalid","Invalid move",,"Непозволен ход",,,"Movimiento invalido","Laiton siirto","Déplacement invalide",,,"Helytelen mozdulat","Mossa non valida",,,,,,,"Movimento inválido","Неправильный ход",,,,"Невірне переміщення","无效移动"
"nomoves","No available moves",,"Няма възможни ходове",,,"No hay movimientos disponibles","Ei laillisia siirtoja","Aucun déplacement possible",,,"Nincs több megtehető lépés","Mosse terminate",,,,,,,"Nenhum movimento disponível",,,,,"Немає коректних ходів","无法进行移动"
"fiftymoves","Fifty-move rule",,"Правилото за 50-те хода",,,"Regla de los 50 movimientos","Viidenkymmenen siirron sääntö","Règle des 50 coups",,,,"Regola delle 50 mosse",,,,,,,"Regra do movimento 50",,,,,"Правило 50 ходів","五十着规则"
"repetition","Threefold repetition",,"Трикратно повторена позиция",,,"Repetición triple","Kolmas toisto","triple répétition",,,,"Terza ripetizione",,,,,,,"Repetição de tríplice",,,,,"Потрійне повторення","三次重复规则"
"impossible","Checkmate impossible",,"Невъзможно е матиране",,,"Jaque-mate imposible","Shakkimatti on mahdoton","Échec et mat impossible",,,"Matt lehetetlen","Scacco matto impossibile",,,,,,,"Cheque mate impossível",,,,,"Мат неможливий","无法将军"
,,,,,,,,,,,,,,,,,,,,,,,,,
"result.none","No result",,"Без резултат",,,"Sin resultado","Ei tulosta","Aucun résultat",,,"Nincs eredmény","Nessun risultato",,,,,,,"Nenhum resultado","Без результата",,,,"Нема результату","无"
"result.draw","Draw",,"Реми",,,"Empate","Tasapeli","Nulle",,,"Döntetlen","Pareggio",,,,,,,"Desenhar","Ничья",,,,"Нічия","和棋"
"result.black","Black wins",,"Черните печелят",,,"Gana el negro","Musta voitti","Victoire des noirs",,,"Fekete nyert","Il nero vince",,,,,,,"Preto venceu","Чёрные выиграли",,,,"Чорні перемагають","黑方胜利"
"result.white","White wins",,"Белите печелят",,,"Gana el blanco","Valkoinen voitti","Victoire des blancs",,,"Fehér nyert","Il bianco vince",,,,,,,"Branco venceu","Белые выиграли",,,,"Білі перемагають","白方胜利"
,,,,,,,,,,,,,,,,,,,,,,,,,
"setup","Setup",,"Наредете",,,"Seleccionar","Asetus","Mise en place",,,"Felállítás","Prepara",,,,,,,"Preparar","Настроить",,,,"Налаштувати","摆子"
"setup2","Setup position",,"Наредете позиция",,,"Seleccionar posición","Asettele pelilauta","Mise des pièces en place",,,"Elhelyezés felállítása","Prepara posizione  ",,,,,,,"Preparar posição","Настроить положения","Start positionen",,,"Налаштувати положення","摆放棋子"
"setup3","Setup board position",,"Наредете позиция на дъската",,,"Seleccionar posición en el tablero","Asettele pelilauta","Mettre les pièces en place",,,"Tábla elhelyezés felállítása","Prepara posizione scacchiera",,,,,,,"Preparar posição de tabuleiro","Настроить положения фигур","Ställ upp spelpjäser",,,"Налаштувати положення фігур","摆放棋子"
"move","Move",,"Преместете",,,"Mover","Siirrä","Déplacer",,,"Lépés","Muovi",,,,,,,"Mover","Ход","Flytta",,,"Перемістити","移动"
"move2","Move piece",,"Преместете фигура",,,"Mover pieza","liikuta nappulaa","Déplacer une pièce",,,"Bábu léptetése","Muovi pedina",,,,,,,"Mover peça","Двигать фигуру","Flytta spelpjäs",,,"Перемістити фігуру","移动棋子"
"spawn","Spawn",,"Създайте",,,"Generar","Lisää","Générer",,,"Élesztés","Genera",,,,,,,"Gerar",,"Generera",,,"Створити","生成"
"spawn2","Spawn piece",,"Създайте фигура",,,"Generar pieza","lisää nappula","Générer une pièce",,,"Bábu élesztése","Genera pedina",,,,,,,"Gerar peça","Добавить фигуру","Generera spelpjäs",,,"Створити фігуру","生成棋子"
"delete","Delete",,"Изтрийте",,,"Borrar","Poista","Effacer",,,"Törlés","Cancella  ",,,,,,,"Apagar","Удалить","Ta bort",,,"Видалити","删除"
"delete2","Delete piece",,"Изтрийте фигура",,,"Borrar pieza","poista nappula","Effacer une pièce",,,"Bábu törlése","Cancella pedina",,,,,,,"Apagar peça","Удалить фигуру","Ta bort spelpjäs",,,"Видалити фігуру","移除棋子"
"color","Color",,"Цвят",,,"Color","Väri","Couleur",,,"Szín","Colore    ",,,,,,,"Cor","Цвет","Färg",,,"Колір","颜色"
"color2","Piece color",,"Цвят на фигурата",,,"Color de la pieza","nappulan väri","Couleur de la pièce",,,"Bábú szín","Colore pedina",,,,,,,"Cor da peça","Цвет фигуры","Spelpjäsens färg",,,"Колір фігури","棋子颜色"
"error","Invalid board position",,"Невалидна позиция",,,"Posición invalida","laiton sijoitus","Position invalide",,,"Helytelen tábla pozíció","Posizione non valida",,,,,,,"Posição de tabuleiro inválida",,"Ogiltig position på brädet",,,"Невірне положення фігур","棋子位置错误"
"error1","Too many pieces",,"Прекалено много фигури",,,"Demasiadas piezas","liikaa nappuloita","Il y a trop de pièces",,,"Túl sok bábú","Troppe pedine",,,,,,,"Muitas peças",,"För många spelpjäser",,,"Забагато фігур","棋子数量过多"
"error2","Position starts in check",,"Позицията започва в шах",,,"La posición comienza en jaque","Sijainti alkaa shakkitilanteesta","Position de départ en échec",,,"Kezdőpozícióban sakk","Controllo posizioni iniziali",,,,,,,"Posição começa em cheque",,"Position startar i shack",,,"Гра починається з шаху","开局已将军"
,,,,,,,,,,,,,,,,,,,,,,,,,
"captured","Captured",,"Отнети",,,"Capturado","Vangittu","Prise",,,"Elfogva","Mangiate",,,,,,,"Capturado","Захвачено","Tillfångatagen",,,"Взято","被吃"
"captured2","Captured pieces",,"Отнети фигури",,,"Piezas capturadas","Vangittuja nappuloita","Pièces prises",,,"Elfogott bábuk","Pedine mangiate",,,,,,,"Peças capturadas","Захваченные фигуры","Tillfångatagen spelpjäs",,,"Взяті фігури","被吃的棋子"
"moves","Moves",,"Ходове",,,"Movimientos","Vuorot","Déplacements",,,,"Mosse",,,,,,,"Movimentos","Ходы","Drag",,,"Ходи","棋步"
"movesl","Moves list",,"Лист от ходове",,,"Lista de movimientos","Vuorolista","Liste de déplacements",,,,"Elenco mosse",,,,,,,"Lista de movimentos","Список ходов","Lista på drag",,,"Список ходів","棋步列表"
"goto","Goto move",,"Отидете до ход",,,"Ir al movimiento","Siirry vuoroon","Aller au déplacement",,,,"Vai alla mossa",,,,,,,"Movimento de ir para","Перейти к ходу",,,,"Перейти до ходу","跳转到棋步"
"movesd","Moves navigation",,"Навигация на ходове",,,"Navegación de movimientos","Vuoronavigaatio","Historique des déplacements",,,,"Ricerca mosse",,,,,,,"Movimentos de navegação",,,,,"Навігація ходів","浏览棋步"
"moves1","Rewind",,"Превърти",,,"Rebobinar","Takaisinpäin","Revenir",,,"Vissza","Riavvolgi",,,,,,,"Reiniciar",,,,,"Назад","后退"
"moves2","Previous",,"Предишен",,,"Previo","Edellinen","Précédent",,,"Előző","Precedente",,,,,,,"Anterior","Предыдущий",,,,"Попередній","上一步"
"moves3","Next",,"Следващ",,,"Siguiente","Seuraava","Suivant",,,"Következő","Successiva",,,,,,,"Seguinte","Следующий",,,,"Наступний","下一步"
"moves4","Forward",,"Последен",,,"Adelantar","Eteenpäin","Avancer",,,"Előre","Avanti",,,,,,,"Avanço","Вперёд",,,,"Вперед","前进"
,,,,,,,,,,,,,,,,,,,,,,,,,
"load","Load database",,"Заредете база данни",,,"Cargar base de datos","Lataa tietokanta","Chargement de la base de données",,,"Adatbázis betöltése","Carica database",,,,,,,"Carregar base de dados",,,,,"Завантаження бази даних","载入数据库"
"loadd","Replay classic matches",,"Преиграйте класически партии",,,"Jugar partidos clasicos","Katso klassisia otteluita","Rejouer des matches classiques",,,"Klasszikus meccsek visszajátszása","Rigioca partite classiche",,,,,,,"Reproduzir partidas clássicas",,,,,"Грати класичні матчі","经典对局回顾"
"pgn.match","Match",,"Партия",,,"Partido","Ottelu","Match",,,"Meccs","Partita",,,,,,,"Partida","Матч",,,,"Матч","Match"
"pgn.white","White",,"Бели",,,"Blanco","Valkoinen","Blancs",,,"Fehér","Bianco",,,,,,,"Branco","Белые",,,,"Білі","白方"
"pgn.black","Black",,"Черни",,,"Negro","Musta","_x0008_Noirs",,,"Fekete","Nero",,,,,,,"Preto","Чёрные",,,,"Чорні","黑方"
"pgn.event","Event",,"Събитие",,,"Evento","Tapahtuma","Événement",,,"Esemény","Evento",,,,,,,"Evento",,,,,"Подія","赛事"
"pgn.site","Site",,"Място",,,"Sitio","Paikka","Lieu",,,"Hely","Luogo",,,,,,,"Local",,,,,"Місце","地点"
"pgn.date","Date",,"Дата",,,"Fecha","Aika","Date",,,"Dátum","Data",,,,,,,"Data",,,,,"Дата","日期"
"pgn.round","Round",,"Кръг",,,"Ronda","Siirto","Coups",,,"Forduló","Turno",,,,,,,"Turno",,,,,"Раунд","局数"
"pgn.result","Result",,"Резултат",,,"Resultado","Tulos","Résultat",,,"Eredmény","Risultato",,,,,,,"Resultado","Результат",,,,"Результат","结果"
,,,,,,,,,,,,,,,,,,,,,,,,,
"side","Choose a side",,"Изберете страна",,,"Seleccione un lado","Valitse puoli","Choisir une couleur",,,,"Scegli un colore",,,,,,,"Escolher um lado","Выбрать сторону",,,,"Оберіть сторону","选色"
"siden","Side",,"Страна",,,"Lado","Puoli","Couleur",,,,"Colore",,,,,,,"Lado","Сторона",,,,"Сторона","棋色："
"side1","white",,"бели",,,"blanco","valkoinen","blancs",,,"fehér","Bianco",,,,,,,"Branco","белые",,,,"білі","白"
"side2","black",,"черни",,,"negro","musta","noirs",,,"fekete","Nero",,,,,,,"Preto","чёрные",,,,"чорні","黑"
"side3","neither",,"нито едните",,,"ningúno","ei kumpikaan","aucune",,,"semelyik","Nessuno",,,,,,,"Nenhum","другой",,,,"жодні","无"
"opponent","Opponent",,"Противник",,,"Oponente","Vastustaja","Adversaire",,,"Ellenfél","Avversario",,,,,,,"Oponente","Соперник",,,,"Супротивник","对手"
"player1","Human",,"Човек",,,"Humano","Ihminen","Humain",,,"Ember","Umano",,,,,,,"Humano","Человек",,,,"Людина","人类棋手"
"player2","Computer",,"Компютър",,,"Computadora","Tietokone","Ordinateur",,,"Számítógép","Computer",,,,,,,"Computador","Компьютер",,,,"Комп’ютер","电脑棋手"
"switch","Switch sides",,"Сменете фигурите",,,"Cambiar de lado","Vaihda puolta","Changer de couleur",,,,"Cambia colore",,,,,,,"Inveter lados","Поменять стороны",,,,"Поміняти сторони","互换棋色"
"flip","Flip board",,"Обърнете дъската",,,"Girar el tablero","Käännä lauta","Tourner le plateau",,,,"Ruota scacchiera",,,,,,,"Inverter tabuleiro","Повернуть доску",,,,"Повернути дошку","翻转棋盘"
,,,,,,,,,,,,,,,,,,,,,,,,,
"highlight","Highlight",,"Подчертаване",,,"Resaltar","Korosta","Revoir",,,,"Evidenzia",,,,,,,"Destaque","Подсветка",,,,"Підсвітити","高亮显示"
"highlightd","Highlight moves",,"Подчертаване на ходове",,,"Resaltar movimientos","Korosta siirtoja","Revoir un coup",,,,"Evidenzia mosse",,,,,,,"Movimentos de destaque","Подсветка ходов",,,,"Підсвітити переміщення","高亮显示棋步"
"high1","last",,"последен",,,"ultimo","edellinen","dernier",,,,"Ultima",,,,,,,"Último","последний",,,,"останній","上一步"
"high1d","last move",,"последен ход",,,"ultimo movimiento","edellinen siirto","dernier coup",,,,"Ultima mossa",,,,,,,"Último movimento","последний ход",,,,"останній хід","上一步"
"high2","available",,"възможни",,,"disponible","saatavilla","disponible",,,,"Disponibile",,,,,,,"Disponíveis","доступные",,,,"доступні","可选棋步"
"high2d","available moves",,"възможни ходове",,,"movimientos disponibles","saatavilla olevat siirrot","coups disponibles",,,,"Mosse disponibili",,,,,,,"Movimentos disponíveis","доступные ходы",,,,"доступні ходи","可选棋步"
"high3","last and available",,"последен и възможни",,,"ultimo y disponible","edellinen ja saatavilla","dernier et disponible",,,,"Ultima e disponibili",,,,,,,"Último e disponível","последний и доступные",,,,"останні і доступні","上一步以及可选棋步"
"high3d","last and available moves",,"последен и възможни ходове",,,"movimientos ultimos y disponibles","edellinen ja saatavilla olevat siirrot","derniers coups et coups disponibles",,,,"Ultime mosse e disponibili",,,,,,,"Último e disponível movimento","последний и доступные ходы",,,,"останні і доступні ходи","上一步以及可选棋步"
"high4","off",,"изключено",,,"nada","pois päältä","désactivé",,,,"Spento",,,,,,,"Desligado","отключено",,,,"виключити","关闭"
,,,,,,,,,,,,,,,,,,,,,,,,,
"boards","Board",,"Дъска",,,"Tablero","Lauta","Plateau",,,"Tábla","Scacchiera",,,,,,,"Tabuleiro","Доска",,,,"Дошка","棋盘"
"boardsd","Board style",,"Вид дъска",,,"Estilo de tablero","Laudan tyyli","Style du plateau",,,"Tábla stílus","Stile scacchiera",,,,,,,"Estilo de tabuleiro","Стиль доски",,,,"Стиль дошки","棋盘样式"
"boardsc","Choose a board style",,"Изберете вид дъска",,,"Seleccione un estilo de tablero","Valitse laudan tyyli","Choisir un style de plateau",,,"Válassz egy tábla stílust","Scegli lo stile della scacchiera",,,,,,,"Escolher um estilo de tabuleiro","Выберите стиль доски",,,,"Оберіть стиль дошки","选择棋盘样式"
"boardsn","Style",,"Вид",,,"Estilo","Tyyli","Style",,,"Stílus","Stile",,,,,,,"Estilo","Стиль",,,,"Стиль","样式："
,,,,,,,,,,,,,,,,,,,,,,,,,
